module gitlab.com/kosmynin/TankBot

go 1.18

require (
	github.com/influxdata/influxdb-client-go/v2 v2.12.3
	github.com/mattn/go-sqlite3 v1.14.17
	github.com/mazznoer/colorgrad v0.9.1
	golang.org/x/text v0.10.0
	gonum.org/v1/plot v0.13.0
)

require (
	git.sr.ht/~sbinet/gg v0.5.0 // indirect
	github.com/ajstarks/svgo v0.0.0-20211024235047-1546f124cd8b // indirect
	github.com/apapsch/go-jsonmerge/v2 v2.0.0 // indirect
	github.com/bytedance/sonic v1.9.1 // indirect
	github.com/campoy/embedmd v1.0.0 // indirect
	github.com/chenzhuoyu/base64x v0.0.0-20221115062448-fe3a3abad311 // indirect
	github.com/deepmap/oapi-codegen v1.13.0 // indirect
	github.com/gabriel-vasile/mimetype v1.4.2 // indirect
	github.com/gin-contrib/sse v0.1.0 // indirect
	github.com/gin-gonic/gin v1.9.1 // indirect
	github.com/go-fonts/liberation v0.3.1 // indirect
	github.com/go-latex/latex v0.0.0-20230307184459-12ec69307ad9 // indirect
	github.com/go-pdf/fpdf v0.8.0 // indirect
	github.com/go-playground/locales v0.14.1 // indirect
	github.com/go-playground/universal-translator v0.18.1 // indirect
	github.com/go-playground/validator/v10 v10.14.1 // indirect
	github.com/goccy/go-json v0.10.2 // indirect
	github.com/golang/freetype v0.0.0-20170609003504-e2365dfdc4a0 // indirect
	github.com/google/uuid v1.3.0 // indirect
	github.com/influxdata/line-protocol v0.0.0-20210922203350-b1ad95c89adf // indirect
	github.com/json-iterator/go v1.1.12 // indirect
	github.com/klauspost/cpuid/v2 v2.2.5 // indirect
	github.com/labstack/echo/v4 v4.10.2 // indirect
	github.com/labstack/gommon v0.4.0 // indirect
	github.com/leodido/go-urn v1.2.4 // indirect
	github.com/mattn/go-colorable v0.1.13 // indirect
	github.com/mattn/go-isatty v0.0.19 // indirect
	github.com/modern-go/concurrent v0.0.0-20180306012644-bacd9c7ef1dd // indirect
	github.com/modern-go/reflect2 v1.0.2 // indirect
	github.com/pelletier/go-toml/v2 v2.0.8 // indirect
	github.com/pkg/errors v0.9.1 // indirect
	github.com/pmezard/go-difflib v1.0.0 // indirect
	github.com/twitchyliquid64/golang-asm v0.15.1 // indirect
	github.com/ugorji/go/codec v1.2.11 // indirect
	github.com/valyala/bytebufferpool v1.0.0 // indirect
	github.com/valyala/fasttemplate v1.2.2 // indirect
	golang.org/x/arch v0.3.0 // indirect
	golang.org/x/crypto v0.10.0 // indirect
	golang.org/x/image v0.8.0 // indirect
	golang.org/x/net v0.11.0 // indirect
	golang.org/x/sys v0.9.0 // indirect
	google.golang.org/protobuf v1.30.0 // indirect
	gopkg.in/yaml.v3 v3.0.1 // indirect
)
